singlecycle.vcd
$date
	Wed Jun 19 13:06:10 2024
$end
$version
	Icarus Verilog
$end
$timescale
	1ps
$end
$scope module SingleCycleProcTest_v $end
$var wire 64 ! dMemOut [63:0] $end
$var wire 64 " currentPC [63:0] $end
$var reg 1 # CLK $end
$var reg 1 $ Reset_L $end
$var reg 8 % passed [7:0] $end
$var reg 64 & startPC [63:0] $end
$var reg 16 ' watchdog [15:0] $end
$scope module uut $end
$var wire 1 # CLK $end
$var wire 1 $ resetl $end
$var wire 64 ( startpc [63:0] $end
$var wire 1 ) zero $end
$var wire 1 * uncond_branch $end
$var wire 3 + signop [2:0] $end
$var wire 5 , rn [4:0] $end
$var wire 5 - rm [4:0] $end
$var wire 1 . regwrite $end
$var wire 64 / regoutB [63:0] $end
$var wire 64 0 regoutA [63:0] $end
$var wire 1 1 reg2loc $end
$var wire 5 2 rd [4:0] $end
$var wire 11 3 opcode [10:0] $end
$var wire 64 4 nextpc [63:0] $end
$var wire 1 5 memwrite $end
$var wire 1 6 memread $end
$var wire 1 7 mem2reg $end
$var wire 32 8 instruction [31:0] $end
$var wire 64 9 extimm [63:0] $end
$var wire 64 : dmemout [63:0] $end
$var wire 1 ; branch $end
$var wire 1 < alusrc $end
$var wire 64 = aluout [63:0] $end
$var wire 4 > aluctrl [3:0] $end
$var wire 64 ? Writedata [63:0] $end
$var wire 64 @ ALUBusB [63:0] $end
$var reg 64 A currentpc [63:0] $end
$scope module Control $end
$var wire 11 B opcode [10:0] $end
$var reg 4 C aluop [3:0] $end
$var reg 1 < alusrc $end
$var reg 1 ; branch $end
$var reg 1 7 mem2reg $end
$var reg 1 6 memread $end
$var reg 1 5 memwrite $end
$var reg 1 1 reg2loc $end
$var reg 1 . regwrite $end
$var reg 3 D signop [2:0] $end
$var reg 1 * uncond_branch $end
$upscope $end
$scope module alu $end
$var wire 4 E ALUCtrl [3:0] $end
$var wire 64 F BusB [63:0] $end
$var wire 1 ) Zero $end
$var wire 64 G BusA [63:0] $end
$var reg 64 H BusW [63:0] $end
$upscope $end
$scope module dmem $end
$var wire 64 I Address [63:0] $end
$var wire 1 # Clock $end
$var wire 1 6 MemoryRead $end
$var wire 1 5 MemoryWrite $end
$var wire 64 J WriteData [63:0] $end
$var reg 64 K ReadData [63:0] $end
$scope task initset $end
$var reg 64 L addr [63:0] $end
$var reg 64 M data [63:0] $end
$upscope $end
$upscope $end
$scope module imem $end
$var wire 64 N Address [63:0] $end
$var reg 32 O Data [31:0] $end
$upscope $end
$scope module nextpclogic $end
$var wire 1 ) ALUZero $end
$var wire 1 ; Branch $end
$var wire 64 P CurrentPC [63:0] $end
$var wire 1 * Uncondbranch $end
$var wire 64 Q SignExtImm64 [63:0] $end
$var reg 64 R NextPC [63:0] $end
$upscope $end
$scope module registerfile $end
$var wire 64 S BusW [63:0] $end
$var wire 1 # Clk $end
$var wire 5 T RA [4:0] $end
$var wire 5 U RB [4:0] $end
$var wire 5 V RW [4:0] $end
$var wire 1 . RegWr $end
$var wire 64 W BusB [63:0] $end
$var wire 64 X BusA [63:0] $end
$upscope $end
$scope module signext $end
$var wire 3 Y Ctrl [2:0] $end
$var wire 32 Z Imm16 [31:0] $end
$var reg 64 [ actualOut [63:0] $end
$upscope $end
$upscope $end
$scope task allPassed $end
$var reg 8 \ numTests [7:0] $end
$var reg 8 ] passed [7:0] $end
$upscope $end
$scope task passTest $end
$var reg 64 ^ actualOut [63:0] $end
$var reg 64 _ expectedOut [63:0] $end
$var reg 8 ` passed [7:0] $end
$var reg 257 a testType [256:0] $end
$upscope $end
$upscope $end
$enddefinitions $end
#0
$dumpvars
bx a
bx `
bx _
bx ^
bx ]
bx \
bx [
bx Z
bx Y
bx X
bx W
bx V
bx U
bx T
bx S
bx R
bx Q
bx P
bx O
bx N
b0 M
b100000 L
bx K
bx J
bx I
bx H
bx G
bx F
bx E
bx D
bx C
bx B
bx A
bx @
bx ?
bx >
bx =
x<
x;
bx :
bx 9
bx 8
x7
x6
x5
bx 4
bx 3
bx 2
x1
bx 0
bx /
x.
bx -
bx ,
bx +
x*
x)
b0 (
b0 '
b0 &
b0 %
1$
0#
bx "
bx !
$end
#60000
1#
#120000
b1 '
0#
#121000
0$
#180000
1#
#240000
b0 @
b0 F
b1 +
b1 D
b1 Y
b10 >
b10 C
b10 E
0*
0;
05
16
1.
17
1<
b0x00x ,
b0x00x U
b0 9
b0 Q
b0 [
b11111000010 3
b11111000010 B
b11111 -
b11111 T
b1001 2
b1001 V
b11111000010000000000001111101001 8
b11111000010000000000001111101001 O
b11111000010000000000001111101001 Z
b100 4
b100 R
b0 "
b0 A
b0 N
b0 P
b10 '
0#
#241000
1$
#242000
1)
b0 =
b0 H
b0 I
b0 0
b0 G
b0 X
#300000
1#
#320000
b1 ?
b1 S
b1 !
b1 :
b1 K
#360000
0)
b1000 =
b1000 H
b1000 I
b1000 @
b1000 F
b0x0x0 ,
b0x0x0 U
b1000 9
b1000 Q
b1000 [
b1010 2
b1010 V
b11111000010000001000001111101010 8
b11111000010000001000001111101010 O
b11111000010000001000001111101010 Z
b1000 4
b1000 R
b100 "
b100 A
b100 N
b100 P
b11 '
0#
#420000
1#
#440000
b1010 ?
b1010 S
b1010 !
b1010 :
b1010 K
#480000
b10000 =
b10000 H
b10000 I
b10000 @
b10000 F
b0x0x1 ,
b0x0x1 U
b10000 9
b10000 Q
b10000 [
b1011 2
b1011 V
b11111000010000010000001111101011 8
b11111000010000010000001111101011 O
b11111000010000010000001111101011 Z
b1100 4
b1100 R
b1000 "
b1000 A
b1000 N
b1000 P
b100 '
0#
#540000
1#
#560000
b101 ?
b101 S
b101 !
b101 :
b101 K
#600000
b11000 =
b11000 H
b11000 I
b11000 @
b11000 F
b0xx0x ,
b0xx0x U
b11000 9
b11000 Q
b11000 [
b1100 2
b1100 V
b11111000010000011000001111101100 8
b11111000010000011000001111101100 O
b11111000010000011000001111101100 Z
b10000 4
b10000 R
b1100 "
b1100 A
b1100 N
b1100 P
b101 '
0#
#660000
1#
#680000
b111111111011111010100111110111101010110110111110111011111111 ?
b111111111011111010100111110111101010110110111110111011111111 S
b111111111011111010100111110111101010110110111110111011111111 !
b111111111011111010100111110111101010110110111110111011111111 :
b111111111011111010100111110111101010110110111110111011111111 K
#720000
b100000 =
b100000 H
b100000 I
b100000 @
b100000 F
b0xxxx ,
b0xxxx U
b100000 9
b100000 Q
b100000 [
b1101 2
b1101 V
b11111000010000100000001111101101 8
b11111000010000100000001111101101 O
b11111000010000100000001111101101 Z
b10100 4
b10100 R
b10000 "
b10000 A
b10000 N
b10000 P
b110 '
0#
#780000
1#
#800000
b0 ?
b0 S
b0 !
b0 :
b0 K
#840000
x)
bx ?
bx S
bx =
bx H
bx I
bx +
bx D
bx Y
b1 >
b1 C
b1 E
06
07
0<
01
bx @
bx F
b1011 ,
b1011 U
b0 9
b0 Q
b0 [
b10101010000 3
b10101010000 B
b1010 -
b1010 T
b1010 2
b1010 V
b10101010000010110000000101001010 8
b10101010000010110000000101001010 O
b10101010000010110000000101001010 Z
b11000 4
b11000 R
b10100 "
b10100 A
b10100 N
b10100 P
b111 '
0#
#842000
0)
b1111 ?
b1111 S
b1111 =
b1111 H
b1111 I
b101 @
b101 F
b101 /
b101 J
b101 W
b1010 0
b1010 G
b1010 X
#900000
1#
#960000
1)
b0 ?
b0 S
b0 =
b0 H
b0 I
b0 >
b0 C
b0 E
b1010 ,
b1010 U
b10001010000 3
b10001010000 B
b1100 -
b1100 T
b1100 2
b1100 V
b10001010000010100000000110001100 8
b10001010000010100000000110001100 O
b10001010000010100000000110001100 Z
b11100 4
b11100 R
b11000 "
b11000 A
b11000 N
b11000 P
b1000 '
0#
#962000
0)
b1010 ?
b1010 S
b1010 =
b1010 H
b1010 I
b1010 @
b1010 F
b1010 /
b1010 J
b1010 W
b111111111011111010100111110111101010110110111110111011111111 0
b111111111011111010100111110111101010110110111110111011111111 G
b111111111011111010100111110111101010110110111110111011111111 X
#965000
b1111 ?
b1111 S
b1111 =
b1111 H
b1111 I
b1111 @
b1111 F
b1111 /
b1111 J
b1111 W
#1020000
1#
#1080000
b100 9
b100 Q
b100 [
b0xxxx ?
b0xxxx S
b11 +
b11 D
b11 Y
b111 >
b111 C
b111 E
1;
0.
x7
11
b1100 ,
b1100 U
b10110100000 3
b10110100000 B
b100 -
b100 T
b10110100000000000000000010001100 8
b10110100000000000000000010001100 O
b10110100000000000000000010001100 Z
b100000 4
b100000 R
b11100 "
b11100 A
b11100 N
b11100 P
b1001 '
0#
#1082000
b0xxxxxxxxx0xxxxx0x0x00xxxxx0xxxx0x0x0xx0xx0xxxxx0xxx0xxxxxxxx ?
b0xxxxxxxxx0xxxxx0x0x00xxxxx0xxxx0x0x0xx0xx0xxxxx0xxx0xxxxxxxx S
b111111111011111010100111110111101010110110111110111011111111 =
b111111111011111010100111110111101010110110111110111011111111 H
b111111111011111010100111110111101010110110111110111011111111 I
b111111111011111010100111110111101010110110111110111011111111 @
b111111111011111010100111110111101010110110111110111011111111 F
b111111111011111010100111110111101010110110111110111011111111 /
b111111111011111010100111110111101010110110111110111011111111 J
b111111111011111010100111110111101010110110111110111011111111 W
bx 0
bx G
bx X
#1085000
b0xxxx ?
b0xxxx S
b1111 =
b1111 H
b1111 I
b1111 @
b1111 F
b1111 /
b1111 J
b1111 W
#1140000
1#
#1200000
x)
bx =
bx H
bx I
bx ?
bx S
bx +
bx D
bx Y
b10 >
b10 C
b10 E
0;
1.
07
01
b1001 ,
b1001 U
b0 9
b0 Q
b0 [
b10001011000 3
b10001011000 B
b1101 -
b1101 T
b1101 2
b1101 V
b10001011000010010000000110101101 8
b10001011000010010000000110101101 O
b10001011000010010000000110101101 Z
b100100 4
b100100 R
b100000 "
b100000 A
b100000 N
b100000 P
b1010 '
0#
#1202000
0)
b1 ?
b1 S
b1 =
b1 H
b1 I
b1 @
b1 F
b1 /
b1 J
b1 W
b0 0
b0 G
b0 X
#1260000
1#
#1320000
b1111111111111111111111111111111111111111111111111111111111111111 ?
b1111111111111111111111111111111111111111111111111111111111111111 S
b1111111111111111111111111111111111111111111111111111111111111111 =
b1111111111111111111111111111111111111111111111111111111111111111 H
b1111111111111111111111111111111111111111111111111111111111111111 I
b110 >
b110 C
b110 E
b11001011000 3
b11001011000 B
b1100 -
b1100 T
b1100 2
b1100 V
b11001011000010010000000110001100 8
b11001011000010010000000110001100 O
b11001011000010010000000110001100 Z
b101000 4
b101000 R
b100100 "
b100100 A
b100100 N
b100100 P
b1011 '
0#
#1322000
b1110 ?
b1110 S
b1110 =
b1110 H
b1110 I
b1111 0
b1111 G
b1111 X
#1380000
1#
#1440000
b1111111111111111111111111111111111111111111111111111111111111101 9
b1111111111111111111111111111111111111111111111111111111111111101 Q
b1111111111111111111111111111111111111111111111111111111111111101 [
b0xxx0 ?
b0xxx0 S
bx01 @
bx01 F
b10 +
b10 D
b10 Y
bx >
bx C
bx E
1*
x;
0.
x7
x<
x1
b111x1 ,
b111x1 U
b10111111 3
b10111111 B
b11111 -
b11111 T
b11101 2
b11101 V
b10111111111111111111111111101 8
b10111111111111111111111111101 O
b10111111111111111111111111101 Z
b11100 4
b11100 R
b101000 "
b101000 A
b101000 N
b101000 P
b1100 '
0#
#1442000
bx @
bx F
bx /
bx J
bx W
b0 0
b0 G
b0 X
#1500000
1#
#1560000
x)
bx ?
bx S
bx =
bx H
bx I
b11 +
b11 D
b11 Y
b111 >
b111 C
b111 E
0*
1;
0<
11
b1100 ,
b1100 U
b100 9
b100 Q
b100 [
b10110100000 3
b10110100000 B
b100 -
b100 T
b1100 2
b1100 V
b10110100000000000000000010001100 8
b10110100000000000000000010001100 O
b10110100000000000000000010001100 Z
b100000 4
b100000 R
b11100 "
b11100 A
b11100 N
b11100 P
b1101 '
0#
#1562000
0)
b0xxx0 ?
b0xxx0 S
b1110 =
b1110 H
b1110 I
b1110 @
b1110 F
b1110 /
b1110 J
b1110 W
bx 0
bx G
bx X
#1620000
1#
#1680000
x)
bx =
bx H
bx I
bx ?
bx S
bx +
bx D
bx Y
b10 >
b10 C
b10 E
0;
1.
07
01
b1001 ,
b1001 U
b0 9
b0 Q
b0 [
b10001011000 3
b10001011000 B
b1101 -
b1101 T
b1101 2
b1101 V
b10001011000010010000000110101101 8
b10001011000010010000000110101101 O
b10001011000010010000000110101101 Z
b100100 4
b100100 R
b100000 "
b100000 A
b100000 N
b100000 P
b1110 '
0#
#1682000
0)
b10 ?
b10 S
b10 =
b10 H
b10 I
b1 @
b1 F
b1 /
b1 J
b1 W
b1 0
b1 G
b1 X
#1740000
1#
#1800000
1)
b0 ?
b0 S
b0 =
b0 H
b0 I
b110 >
b110 C
b110 E
b11001011000 3
b11001011000 B
b1100 -
b1100 T
b1100 2
b1100 V
b11001011000010010000000110001100 8
b11001011000010010000000110001100 O
b11001011000010010000000110001100 Z
b101000 4
b101000 R
b100100 "
b100100 A
b100100 N
b100100 P
b1111 '
0#
#1802000
0)
b1101 ?
b1101 S
b1101 =
b1101 H
b1101 I
b1110 0
b1110 G
b1110 X
#1860000
1#
#1920000
b1111111111111111111111111111111111111111111111111111111111111101 9
b1111111111111111111111111111111111111111111111111111111111111101 Q
b1111111111111111111111111111111111111111111111111111111111111101 [
b0xx0x ?
b0xx0x S
bx01 @
bx01 F
b10 +
b10 D
b10 Y
bx >
bx C
bx E
1*
x;
0.
x7
x<
x1
b111x1 ,
b111x1 U
b10111111 3
b10111111 B
b11111 -
b11111 T
b11101 2
b11101 V
b10111111111111111111111111101 8
b10111111111111111111111111101 O
b10111111111111111111111111101 Z
b11100 4
b11100 R
b101000 "
b101000 A
b101000 N
b101000 P
b10000 '
0#
#1922000
bx @
bx F
bx /
bx J
bx W
b0 0
b0 G
b0 X
#1980000
1#
#2040000
x)
bx ?
bx S
bx =
bx H
bx I
b11 +
b11 D
b11 Y
b111 >
b111 C
b111 E
0*
1;
0<
11
b1100 ,
b1100 U
b100 9
b100 Q
b100 [
b10110100000 3
b10110100000 B
b100 -
b100 T
b1100 2
b1100 V
b10110100000000000000000010001100 8
b10110100000000000000000010001100 O
b10110100000000000000000010001100 Z
b100000 4
b100000 R
b11100 "
b11100 A
b11100 N
b11100 P
b10001 '
0#
#2042000
0)
b0xx0x ?
b0xx0x S
b1101 =
b1101 H
b1101 I
b1101 @
b1101 F
b1101 /
b1101 J
b1101 W
bx 0
bx G
bx X
#2100000
1#
#2160000
x)
bx =
bx H
bx I
bx ?
bx S
bx +
bx D
bx Y
b10 >
b10 C
b10 E
0;
1.
07
01
b1001 ,
b1001 U
b0 9
b0 Q
b0 [
b10001011000 3
b10001011000 B
b1101 -
b1101 T
b1101 2
b1101 V
b10001011000010010000000110101101 8
b10001011000010010000000110101101 O
b10001011000010010000000110101101 Z
b100100 4
b100100 R
b100000 "
b100000 A
b100000 N
b100000 P
b10010 '
0#
#2162000
0)
b11 ?
b11 S
b11 =
b11 H
b11 I
b1 @
b1 F
b1 /
b1 J
b1 W
b10 0
b10 G
b10 X
#2220000
1#
#2280000
b1 ?
b1 S
b1 =
b1 H
b1 I
b110 >
b110 C
b110 E
b11001011000 3
b11001011000 B
b1100 -
b1100 T
b1100 2
b1100 V
b11001011000010010000000110001100 8
b11001011000010010000000110001100 O
b11001011000010010000000110001100 Z
b101000 4
b101000 R
b100100 "
b100100 A
b100100 N
b100100 P
b10011 '
0#
#2282000
b1100 ?
b1100 S
b1100 =
b1100 H
b1100 I
b1101 0
b1101 G
b1101 X
#2340000
1#
#2400000
b1111111111111111111111111111111111111111111111111111111111111101 9
b1111111111111111111111111111111111111111111111111111111111111101 Q
b1111111111111111111111111111111111111111111111111111111111111101 [
b0xx00 ?
b0xx00 S
bx01 @
bx01 F
b10 +
b10 D
b10 Y
bx >
bx C
bx E
1*
x;
0.
x7
x<
x1
b111x1 ,
b111x1 U
b10111111 3
b10111111 B
b11111 -
b11111 T
b11101 2
b11101 V
b10111111111111111111111111101 8
b10111111111111111111111111101 O
b10111111111111111111111111101 Z
b11100 4
b11100 R
b101000 "
b101000 A
b101000 N
b101000 P
b10100 '
0#
#2402000
bx @
bx F
bx /
bx J
bx W
b0 0
b0 G
b0 X
#2460000
1#
#2520000
x)
bx ?
bx S
bx =
bx H
bx I
b11 +
b11 D
b11 Y
b111 >
b111 C
b111 E
0*
1;
0<
11
b1100 ,
b1100 U
b100 9
b100 Q
b100 [
b10110100000 3
b10110100000 B
b100 -
b100 T
b1100 2
b1100 V
b10110100000000000000000010001100 8
b10110100000000000000000010001100 O
b10110100000000000000000010001100 Z
b100000 4
b100000 R
b11100 "
b11100 A
b11100 N
b11100 P
b10101 '
0#
#2522000
0)
b0xx00 ?
b0xx00 S
b1100 =
b1100 H
b1100 I
b1100 @
b1100 F
b1100 /
b1100 J
b1100 W
bx 0
bx G
bx X
#2580000
1#
#2640000
x)
bx =
bx H
bx I
bx ?
bx S
bx +
bx D
bx Y
b10 >
b10 C
b10 E
0;
1.
07
01
b1001 ,
b1001 U
b0 9
b0 Q
b0 [
b10001011000 3
b10001011000 B
b1101 -
b1101 T
b1101 2
b1101 V
b10001011000010010000000110101101 8
b10001011000010010000000110101101 O
b10001011000010010000000110101101 Z
b100100 4
b100100 R
b100000 "
b100000 A
b100000 N
b100000 P
b10110 '
0#
#2642000
0)
b100 ?
b100 S
b100 =
b100 H
b100 I
b1 @
b1 F
b1 /
b1 J
b1 W
b11 0
b11 G
b11 X
#2700000
1#
#2760000
b10 ?
b10 S
b10 =
b10 H
b10 I
b110 >
b110 C
b110 E
b11001011000 3
b11001011000 B
b1100 -
b1100 T
b1100 2
b1100 V
b11001011000010010000000110001100 8
b11001011000010010000000110001100 O
b11001011000010010000000110001100 Z
b101000 4
b101000 R
b100100 "
b100100 A
b100100 N
b100100 P
b10111 '
0#
#2762000
b1011 ?
b1011 S
b1011 =
b1011 H
b1011 I
b1100 0
b1100 G
b1100 X
#2820000
1#
#2880000
b1111111111111111111111111111111111111111111111111111111111111101 9
b1111111111111111111111111111111111111111111111111111111111111101 Q
b1111111111111111111111111111111111111111111111111111111111111101 [
b0x0xx ?
b0x0xx S
bx01 @
bx01 F
b10 +
b10 D
b10 Y
bx >
bx C
bx E
1*
x;
0.
x7
x<
x1
b111x1 ,
b111x1 U
b10111111 3
b10111111 B
b11111 -
b11111 T
b11101 2
b11101 V
b10111111111111111111111111101 8
b10111111111111111111111111101 O
b10111111111111111111111111101 Z
b11100 4
b11100 R
b101000 "
b101000 A
b101000 N
b101000 P
b11000 '
0#
#2882000
bx @
bx F
bx /
bx J
bx W
b0 0
b0 G
b0 X
#2940000
1#
#3000000
x)
bx ?
bx S
bx =
bx H
bx I
b11 +
b11 D
b11 Y
b111 >
b111 C
b111 E
0*
1;
0<
11
b1100 ,
b1100 U
b100 9
b100 Q
b100 [
b10110100000 3
b10110100000 B
b100 -
b100 T
b1100 2
b1100 V
b10110100000000000000000010001100 8
b10110100000000000000000010001100 O
b10110100000000000000000010001100 Z
b100000 4
b100000 R
b11100 "
b11100 A
b11100 N
b11100 P
b11001 '
0#
#3002000
0)
b0x0xx ?
b0x0xx S
b1011 =
b1011 H
b1011 I
b1011 @
b1011 F
b1011 /
b1011 J
b1011 W
bx 0
bx G
bx X
#3060000
1#
#3120000
x)
bx =
bx H
bx I
bx ?
bx S
bx +
bx D
bx Y
b10 >
b10 C
b10 E
0;
1.
07
01
b1001 ,
b1001 U
b0 9
b0 Q
b0 [
b10001011000 3
b10001011000 B
b1101 -
b1101 T
b1101 2
b1101 V
b10001011000010010000000110101101 8
b10001011000010010000000110101101 O
b10001011000010010000000110101101 Z
b100100 4
b100100 R
b100000 "
b100000 A
b100000 N
b100000 P
b11010 '
0#
#3122000
0)
b101 ?
b101 S
b101 =
b101 H
b101 I
b1 @
b1 F
b1 /
b1 J
b1 W
b100 0
b100 G
b100 X
#3180000
1#
#3240000
b11 ?
b11 S
b11 =
b11 H
b11 I
b110 >
b110 C
b110 E
b11001011000 3
b11001011000 B
b1100 -
b1100 T
b1100 2
b1100 V
b11001011000010010000000110001100 8
b11001011000010010000000110001100 O
b11001011000010010000000110001100 Z
b101000 4
b101000 R
b100100 "
b100100 A
b100100 N
b100100 P
b11011 '
0#
#3242000
b1010 ?
b1010 S
b1010 =
b1010 H
b1010 I
b1011 0
b1011 G
b1011 X
#3300000
1#
#3360000
b1111111111111111111111111111111111111111111111111111111111111101 9
b1111111111111111111111111111111111111111111111111111111111111101 Q
b1111111111111111111111111111111111111111111111111111111111111101 [
b0x0x0 ?
b0x0x0 S
bx01 @
bx01 F
b10 +
b10 D
b10 Y
bx >
bx C
bx E
1*
x;
0.
x7
x<
x1
b111x1 ,
b111x1 U
b10111111 3
b10111111 B
b11111 -
b11111 T
b11101 2
b11101 V
b10111111111111111111111111101 8
b10111111111111111111111111101 O
b10111111111111111111111111101 Z
b11100 4
b11100 R
b101000 "
b101000 A
b101000 N
b101000 P
b11100 '
0#
#3362000
bx @
bx F
bx /
bx J
bx W
b0 0
b0 G
b0 X
#3420000
1#
#3480000
x)
bx ?
bx S
bx =
bx H
bx I
b11 +
b11 D
b11 Y
b111 >
b111 C
b111 E
0*
1;
0<
11
b1100 ,
b1100 U
b100 9
b100 Q
b100 [
b10110100000 3
b10110100000 B
b100 -
b100 T
b1100 2
b1100 V
b10110100000000000000000010001100 8
b10110100000000000000000010001100 O
b10110100000000000000000010001100 Z
b100000 4
b100000 R
b11100 "
b11100 A
b11100 N
b11100 P
b11101 '
0#
#3482000
0)
b0x0x0 ?
b0x0x0 S
b1010 =
b1010 H
b1010 I
b1010 @
b1010 F
b1010 /
b1010 J
b1010 W
bx 0
bx G
bx X
#3540000
1#
#3600000
x)
bx =
bx H
bx I
bx ?
bx S
bx +
bx D
bx Y
b10 >
b10 C
b10 E
0;
1.
07
01
b1001 ,
b1001 U
b0 9
b0 Q
b0 [
b10001011000 3
b10001011000 B
b1101 -
b1101 T
b1101 2
b1101 V
b10001011000010010000000110101101 8
b10001011000010010000000110101101 O
b10001011000010010000000110101101 Z
b100100 4
b100100 R
b100000 "
b100000 A
b100000 N
b100000 P
b11110 '
0#
#3602000
0)
b110 ?
b110 S
b110 =
b110 H
b110 I
b1 @
b1 F
b1 /
b1 J
b1 W
b101 0
b101 G
b101 X
#3660000
1#
#3720000
b100 ?
b100 S
b100 =
b100 H
b100 I
b110 >
b110 C
b110 E
b11001011000 3
b11001011000 B
b1100 -
b1100 T
b1100 2
b1100 V
b11001011000010010000000110001100 8
b11001011000010010000000110001100 O
b11001011000010010000000110001100 Z
b101000 4
b101000 R
b100100 "
b100100 A
b100100 N
b100100 P
b11111 '
0#
#3722000
b1001 ?
b1001 S
b1001 =
b1001 H
b1001 I
b1010 0
b1010 G
b1010 X
#3780000
1#
#3840000
b1111111111111111111111111111111111111111111111111111111111111101 9
b1111111111111111111111111111111111111111111111111111111111111101 Q
b1111111111111111111111111111111111111111111111111111111111111101 [
b0x00x ?
b0x00x S
bx01 @
bx01 F
b10 +
b10 D
b10 Y
bx >
bx C
bx E
1*
x;
0.
x7
x<
x1
b111x1 ,
b111x1 U
b10111111 3
b10111111 B
b11111 -
b11111 T
b11101 2
b11101 V
b10111111111111111111111111101 8
b10111111111111111111111111101 O
b10111111111111111111111111101 Z
b11100 4
b11100 R
b101000 "
b101000 A
b101000 N
b101000 P
b100000 '
0#
#3842000
bx @
bx F
bx /
bx J
bx W
b0 0
b0 G
b0 X
#3900000
1#
#3960000
x)
bx ?
bx S
bx =
bx H
bx I
b11 +
b11 D
b11 Y
b111 >
b111 C
b111 E
0*
1;
0<
11
b1100 ,
b1100 U
b100 9
b100 Q
b100 [
b10110100000 3
b10110100000 B
b100 -
b100 T
b1100 2
b1100 V
b10110100000000000000000010001100 8
b10110100000000000000000010001100 O
b10110100000000000000000010001100 Z
b100000 4
b100000 R
b11100 "
b11100 A
b11100 N
b11100 P
b100001 '
0#
#3962000
0)
b0x00x ?
b0x00x S
b1001 =
b1001 H
b1001 I
b1001 @
b1001 F
b1001 /
b1001 J
b1001 W
bx 0
bx G
bx X
#4020000
1#
#4080000
x)
bx =
bx H
bx I
bx ?
bx S
bx +
bx D
bx Y
b10 >
b10 C
b10 E
0;
1.
07
01
b1001 ,
b1001 U
b0 9
b0 Q
b0 [
b10001011000 3
b10001011000 B
b1101 -
b1101 T
b1101 2
b1101 V
b10001011000010010000000110101101 8
b10001011000010010000000110101101 O
b10001011000010010000000110101101 Z
b100100 4
b100100 R
b100000 "
b100000 A
b100000 N
b100000 P
b100010 '
0#
#4082000
0)
b111 ?
b111 S
b111 =
b111 H
b111 I
b1 @
b1 F
b1 /
b1 J
b1 W
b110 0
b110 G
b110 X
#4140000
1#
#4200000
b101 ?
b101 S
b101 =
b101 H
b101 I
b110 >
b110 C
b110 E
b11001011000 3
b11001011000 B
b1100 -
b1100 T
b1100 2
b1100 V
b11001011000010010000000110001100 8
b11001011000010010000000110001100 O
b11001011000010010000000110001100 Z
b101000 4
b101000 R
b100100 "
b100100 A
b100100 N
b100100 P
b100011 '
0#
#4202000
b1000 ?
b1000 S
b1000 =
b1000 H
b1000 I
b1001 0
b1001 G
b1001 X
#4260000
1#
#4320000
b1111111111111111111111111111111111111111111111111111111111111101 9
b1111111111111111111111111111111111111111111111111111111111111101 Q
b1111111111111111111111111111111111111111111111111111111111111101 [
b0x000 ?
b0x000 S
bx01 @
bx01 F
b10 +
b10 D
b10 Y
bx >
bx C
bx E
1*
x;
0.
x7
x<
x1
b111x1 ,
b111x1 U
b10111111 3
b10111111 B
b11111 -
b11111 T
b11101 2
b11101 V
b10111111111111111111111111101 8
b10111111111111111111111111101 O
b10111111111111111111111111101 Z
b11100 4
b11100 R
b101000 "
b101000 A
b101000 N
b101000 P
b100100 '
0#
#4322000
bx @
bx F
bx /
bx J
bx W
b0 0
b0 G
b0 X
#4380000
1#
#4440000
x)
bx ?
bx S
bx =
bx H
bx I
b11 +
b11 D
b11 Y
b111 >
b111 C
b111 E
0*
1;
0<
11
b1100 ,
b1100 U
b100 9
b100 Q
b100 [
b10110100000 3
b10110100000 B
b100 -
b100 T
b1100 2
b1100 V
b10110100000000000000000010001100 8
b10110100000000000000000010001100 O
b10110100000000000000000010001100 Z
b100000 4
b100000 R
b11100 "
b11100 A
b11100 N
b11100 P
b100101 '
0#
#4442000
0)
b0x000 ?
b0x000 S
b1000 =
b1000 H
b1000 I
b1000 @
b1000 F
b1000 /
b1000 J
b1000 W
bx 0
bx G
bx X
#4500000
1#
#4560000
x)
bx =
bx H
bx I
bx ?
bx S
bx +
bx D
bx Y
b10 >
b10 C
b10 E
0;
1.
07
01
b1001 ,
b1001 U
b0 9
b0 Q
b0 [
b10001011000 3
b10001011000 B
b1101 -
b1101 T
b1101 2
b1101 V
b10001011000010010000000110101101 8
b10001011000010010000000110101101 O
b10001011000010010000000110101101 Z
b100100 4
b100100 R
b100000 "
b100000 A
b100000 N
b100000 P
b100110 '
0#
#4562000
0)
b1000 ?
b1000 S
b1000 =
b1000 H
b1000 I
b1 @
b1 F
b1 /
b1 J
b1 W
b111 0
b111 G
b111 X
#4620000
1#
#4680000
b110 ?
b110 S
b110 =
b110 H
b110 I
b110 >
b110 C
b110 E
b11001011000 3
b11001011000 B
b1100 -
b1100 T
b1100 2
b1100 V
b11001011000010010000000110001100 8
b11001011000010010000000110001100 O
b11001011000010010000000110001100 Z
b101000 4
b101000 R
b100100 "
b100100 A
b100100 N
b100100 P
b100111 '
0#
#4682000
b111 ?
b111 S
b111 =
b111 H
b111 I
b1000 0
b1000 G
b1000 X
#4740000
1#
#4800000
b1111111111111111111111111111111111111111111111111111111111111101 9
b1111111111111111111111111111111111111111111111111111111111111101 Q
b1111111111111111111111111111111111111111111111111111111111111101 [
b0xxx ?
b0xxx S
bx01 @
bx01 F
b10 +
b10 D
b10 Y
bx >
bx C
bx E
1*
x;
0.
x7
x<
x1
b111x1 ,
b111x1 U
b10111111 3
b10111111 B
b11111 -
b11111 T
b11101 2
b11101 V
b10111111111111111111111111101 8
b10111111111111111111111111101 O
b10111111111111111111111111101 Z
b11100 4
b11100 R
b101000 "
b101000 A
b101000 N
b101000 P
b101000 '
0#
#4802000
bx @
bx F
bx /
bx J
bx W
b0 0
b0 G
b0 X
#4860000
1#
#4920000
x)
bx ?
bx S
bx =
bx H
bx I
b11 +
b11 D
b11 Y
b111 >
b111 C
b111 E
0*
1;
0<
11
b1100 ,
b1100 U
b100 9
b100 Q
b100 [
b10110100000 3
b10110100000 B
b100 -
b100 T
b1100 2
b1100 V
b10110100000000000000000010001100 8
b10110100000000000000000010001100 O
b10110100000000000000000010001100 Z
b100000 4
b100000 R
b11100 "
b11100 A
b11100 N
b11100 P
b101001 '
0#
#4922000
0)
b0xxx ?
b0xxx S
b111 =
b111 H
b111 I
b111 @
b111 F
b111 /
b111 J
b111 W
bx 0
bx G
bx X
#4980000
1#
#5040000
x)
bx =
bx H
bx I
bx ?
bx S
bx +
bx D
bx Y
b10 >
b10 C
b10 E
0;
1.
07
01
b1001 ,
b1001 U
b0 9
b0 Q
b0 [
b10001011000 3
b10001011000 B
b1101 -
b1101 T
b1101 2
b1101 V
b10001011000010010000000110101101 8
b10001011000010010000000110101101 O
b10001011000010010000000110101101 Z
b100100 4
b100100 R
b100000 "
b100000 A
b100000 N
b100000 P
b101010 '
0#
#5042000
0)
b1001 ?
b1001 S
b1001 =
b1001 H
b1001 I
b1 @
b1 F
b1 /
b1 J
b1 W
b1000 0
b1000 G
b1000 X
#5100000
1#
